{
  "$schema": "http://json-schema.org/draft-04/schema#",
  "type": "array",
  "items": {
    "type": "object",
    "properties": {
      "control_form": {
        "type": "string",
        "enum": [
          "Зачёт",
          "Дифференцированный зачёт",
          "Экзамен",
          "Курсовая работа",
          "Курсовой проект",
          "Защита ВКР"
        ]
      },
      "current_grade": {
        "type": "number",
        "multipleOf": 0.05,
        "minimum": 0.0
      },
      "department": {
        "type": "string",
        "minLength": 2
      },
      "exam_date": {
        "type": "string",
        "format": "date-time"
      },
      "id": {
        "type": "integer",
        "minimum": 1
      },
      "max_grade": {
        "type": "number",
        "multipleOf": 0.05,
        "minimum": 0.0
      },
      "name": {
        "type": "string",
        "minLength": 2
      },
      "teachers": {
        "type": "array",
        "items": {
          "type": "string",
          "pattern": "^\\w+\\ \\w+"
        }
      }
    },
    "required": ["department", "id", "max_grade", "name"],
    "additionalProperties": false
  }
}
