{
  "$schema": "http://json-schema.org/draft-04/schema#",
  "type": "object",
  "properties": {
    "course": {
      "type": "integer",
      "minimum": 1
    },
    "department": {
      "type": "string",
      "minLenght": 2
    },
    "full_name": {
      "type": "string",
      "pattern": "^\\w+\\ \\w+"
    },
    "group": {
      "type": "string",
      "pattern": "^\\w+-\\d{2}"
    },
    "record_book_id": {
      "type": "integer",
      "minimum": 100000,
      "maximum": 10000000
    },
    "semester": {
      "type": "integer",
      "minimum": 1,
      "maximum": 2
    },
    "study_direction": {
      "type": "string",
      "minLength": 2
    },
    "study_profile": {
      "type": "string",
      "minLength": 2
    },
    "year": {
      "type": "string",
      "pattern": "20\\d{2}-20\\d{2}"
    }
  },
  "required": ["course", "department", "full_name", "group", "record_book_id",
               "semester", "study_direction", "study_profile", "year"],
  "additionalProperties": false
}
